1. B
2. A
3. B
4. B
5. B
6. A
7. C
8. C
9. B
10. B
11. A
12. C
13. D
14. B
15. D
16. D
17. B
18. D
19. C
20. D
21. A
22. C
23. D
24. B
25. B
26. A
27. D
28. C
29. C
30. B
31. B
32. B
33. C
34. B
35. B
36. A
37. B
38. D
39. D
40. D
41. D
42. D
43. A
44. A
45. D
46. B
47. B
48. D
49. C
50. C
