1. B
2. A
3. C
4. C
5. B
6. C
7. A
8. D
9. D
10. D
11. B
12. D
13. B
14. D
15. B
16. D
17. A
18. B
19. C
20. A
21. B
22. C
23. A
24. C
25. D
26. C
27. D
28. D
29. B
30. C
31. B
32. A
33. B
34. B
35. D
36. A
37. B
38. D
39. C
40. A
41. C
42. D
43. D
44. D
45. C
46. D
47. C
48. D
49. D
50. D
