1. C
2. B
3. B
4. A
5. A
6. D
7. A
8. A
9. A
10. A
11. C
12. C
13. C
14. D
15. C
16. D
17. C
18. C
19. D
20. C
21. D
22. D
23. A
24. C
25. A
26. B
27. B
28. B
29. B
30. B
31. D
32. C
33. A
34. B
35. D
36. A
37. A
38. A
39. D
40. C
41. B
42. B
43. C
44. A
45. C
46. C
47. D
48. C
49. C
50. D
