1. B
2. A
3. A
4. D
5. A
6. D
7. B
8. C
9. D
10. B
11. B
12. A
13. B
14. B
15. B
16. B
17. D
18. A
19. D
20. A
21. D
22. A
23. D
24. B
25. B
26. D
27. D
28. B
29. C
30. B
31. B
32. B
33. A
34. B
35. D
36. A
37. D
38. D
39. D
40. C
41. D
42. A
43. C
44. D
45. B
46. D
47. B
48. B
49. C
50. B
