1. A
2. A
3. A
4. C
5. D
6. A
7. A
8. B
9. A
10. B
11. D
12. D
13. C
14. A
15. D
16. A
17. D
18. B
19. B
20. D
21. A
22. B
23. A
24. D
25. C
26. D
27. D
28. A
29. D
30. D
31. D
32. B
33. B
34. B
35. D
36. C
37. A
38. D
39. D
40. B
41. B
42. B
43. B
44. C
45. D
46. C
47. C
48. A
49. D
50. C
