In [1]: import shutil, os

In [2]: os.chdir('C:\\')

In [3]: shutil.copy('C:\\spam.txt', 'C:\\delicious')
   ...:
---------------------------------------------------------------------------
FileNotFoundError                         Traceback (most recent call last)
<ipython-input-3-7ec16ce338a4> in <module>()
----> 1 shutil.copy('C:\\spam.txt', 'C:\\delicious')

C:\Users\mytru\Anaconda3\lib\shutil.py in copy(src, dst, follow_symlinks)
    233     if os.path.isdir(dst):
    234         dst = os.path.join(dst, os.path.basename(src))
--> 235     copyfile(src, dst, follow_symlinks=follow_symlinks)
    236     copymode(src, dst, follow_symlinks=follow_symlinks)
    237     return dst

C:\Users\mytru\Anaconda3\lib\shutil.py in copyfile(src, dst, follow_symlinks)
    112         os.symlink(os.readlink(src), dst)
    113     else:
--> 114         with open(src, 'rb') as fsrc:
    115             with open(dst, 'wb') as fdst:
    116                 copyfileobj(fsrc, fdst)

FileNotFoundError: [Errno 2] No such file or directory: 'C:\\spam.txt'

In [4]: shutil.copy('C:\\spam.txt', 'C:\\delicious')
---------------------------------------------------------------------------
FileNotFoundError                         Traceback (most recent call last)
<ipython-input-4-7ec16ce338a4> in <module>()
----> 1 shutil.copy('C:\\spam.txt', 'C:\\delicious')

C:\Users\mytru\Anaconda3\lib\shutil.py in copy(src, dst, follow_symlinks)
    233     if os.path.isdir(dst):
    234         dst = os.path.join(dst, os.path.basename(src))
--> 235     copyfile(src, dst, follow_symlinks=follow_symlinks)
    236     copymode(src, dst, follow_symlinks=follow_symlinks)
    237     return dst

C:\Users\mytru\Anaconda3\lib\shutil.py in copyfile(src, dst, follow_symlinks)
    112         os.symlink(os.readlink(src), dst)
    113     else:
--> 114         with open(src, 'rb') as fsrc:
    115             with open(dst, 'wb') as fdst:
    116                 copyfileobj(fsrc, fdst)

FileNotFoundError: [Errno 2] No such file or directory: 'C:\\spam.txt'

In [5]: shutil.copy('eggs.txt', 'C:\\delicious\\eggs2.txt')
---------------------------------------------------------------------------
FileNotFoundError                         Traceback (most recent call last)
<ipython-input-5-651a2abe236d> in <module>()
----> 1 shutil.copy('eggs.txt', 'C:\\delicious\\eggs2.txt')

C:\Users\mytru\Anaconda3\lib\shutil.py in copy(src, dst, follow_symlinks)
    233     if os.path.isdir(dst):
    234         dst = os.path.join(dst, os.path.basename(src))
--> 235     copyfile(src, dst, follow_symlinks=follow_symlinks)
    236     copymode(src, dst, follow_symlinks=follow_symlinks)
    237     return dst

C:\Users\mytru\Anaconda3\lib\shutil.py in copyfile(src, dst, follow_symlinks)
    112         os.symlink(os.readlink(src), dst)
    113     else:
--> 114         with open(src, 'rb') as fsrc:
    115             with open(dst, 'wb') as fdst:
    116                 copyfileobj(fsrc, fdst)

FileNotFoundError: [Errno 2] No such file or directory: 'eggs.txt'

In [6]: import shutil, os

In [7]: os.chdir('C:\\')

In [8]: shutil.copytree('C:\\bacon', 'C:\\bacon_backup')
---------------------------------------------------------------------------
FileNotFoundError                         Traceback (most recent call last)
<ipython-input-8-b2c21349438b> in <module>()
----> 1 shutil.copytree('C:\\bacon', 'C:\\bacon_backup')

C:\Users\mytru\Anaconda3\lib\shutil.py in copytree(src, dst, symlinks, ignore, copy_function, ignore_dangling_symlinks)
    301
    302     """
--> 303     names = os.listdir(src)
    304     if ignore is not None:
    305         ignored_names = ignore(src, names)

FileNotFoundError: [WinError 3] The system cannot find the path specified: 'C:\\bacon'

In [9]: import shutil

In [10]: shutil.move('C:\\bacon.txt', 'C:\\eggs')
---------------------------------------------------------------------------
FileNotFoundError                         Traceback (most recent call last)
C:\Users\mytru\Anaconda3\lib\shutil.py in move(src, dst, copy_function)
    537     try:
--> 538         os.rename(src, real_dst)
    539     except OSError:

FileNotFoundError: [WinError 2] The system cannot find the file specified: 'C:\\bacon.txt' -> 'C:\\eggs'

During handling of the above exception, another exception occurred:

FileNotFoundError                         Traceback (most recent call last)
<ipython-input-10-8e68cf35baa7> in <module>()
----> 1 shutil.move('C:\\bacon.txt', 'C:\\eggs')

C:\Users\mytru\Anaconda3\lib\shutil.py in move(src, dst, copy_function)
    550             rmtree(src)
    551         else:
--> 552             copy_function(src, real_dst)
    553             os.unlink(src)
    554     return real_dst

C:\Users\mytru\Anaconda3\lib\shutil.py in copy2(src, dst, follow_symlinks)
    249     if os.path.isdir(dst):
    250         dst = os.path.join(dst, os.path.basename(src))
--> 251     copyfile(src, dst, follow_symlinks=follow_symlinks)
    252     copystat(src, dst, follow_symlinks=follow_symlinks)
    253     return dst

C:\Users\mytru\Anaconda3\lib\shutil.py in copyfile(src, dst, follow_symlinks)
    112         os.symlink(os.readlink(src), dst)
    113     else:
--> 114         with open(src, 'rb') as fsrc:
    115             with open(dst, 'wb') as fdst:
    116                 copyfileobj(fsrc, fdst)

FileNotFoundError: [Errno 2] No such file or directory: 'C:\\bacon.txt'

In [11]: shutil.move('C:\\bacon.txt', 'C:\\eggs\\new_bacon.txt')
---------------------------------------------------------------------------
FileNotFoundError                         Traceback (most recent call last)
C:\Users\mytru\Anaconda3\lib\shutil.py in move(src, dst, copy_function)
    537     try:
--> 538         os.rename(src, real_dst)
    539     except OSError:

FileNotFoundError: [WinError 2] The system cannot find the file specified: 'C:\\bacon.txt' -> 'C:\\eggs\\new_bacon.txt'

During handling of the above exception, another exception occurred:

FileNotFoundError                         Traceback (most recent call last)
<ipython-input-11-b3cf26dbc345> in <module>()
----> 1 shutil.move('C:\\bacon.txt', 'C:\\eggs\\new_bacon.txt')

C:\Users\mytru\Anaconda3\lib\shutil.py in move(src, dst, copy_function)
    550             rmtree(src)
    551         else:
--> 552             copy_function(src, real_dst)
    553             os.unlink(src)
    554     return real_dst

C:\Users\mytru\Anaconda3\lib\shutil.py in copy2(src, dst, follow_symlinks)
    249     if os.path.isdir(dst):
    250         dst = os.path.join(dst, os.path.basename(src))
--> 251     copyfile(src, dst, follow_symlinks=follow_symlinks)
    252     copystat(src, dst, follow_symlinks=follow_symlinks)
    253     return dst

C:\Users\mytru\Anaconda3\lib\shutil.py in copyfile(src, dst, follow_symlinks)
    112         os.symlink(os.readlink(src), dst)
    113     else:
--> 114         with open(src, 'rb') as fsrc:
    115             with open(dst, 'wb') as fdst:
    116                 copyfileobj(fsrc, fdst)

FileNotFoundError: [Errno 2] No such file or directory: 'C:\\bacon.txt'

In [12]: shutil.move('C:\\bacon.txt', 'C:\\eggs')
---------------------------------------------------------------------------
FileNotFoundError                         Traceback (most recent call last)
C:\Users\mytru\Anaconda3\lib\shutil.py in move(src, dst, copy_function)
    537     try:
--> 538         os.rename(src, real_dst)
    539     except OSError:

FileNotFoundError: [WinError 2] The system cannot find the file specified: 'C:\\bacon.txt' -> 'C:\\eggs'

During handling of the above exception, another exception occurred:

FileNotFoundError                         Traceback (most recent call last)
<ipython-input-12-8e68cf35baa7> in <module>()
----> 1 shutil.move('C:\\bacon.txt', 'C:\\eggs')

C:\Users\mytru\Anaconda3\lib\shutil.py in move(src, dst, copy_function)
    550             rmtree(src)
    551         else:
--> 552             copy_function(src, real_dst)
    553             os.unlink(src)
    554     return real_dst

C:\Users\mytru\Anaconda3\lib\shutil.py in copy2(src, dst, follow_symlinks)
    249     if os.path.isdir(dst):
    250         dst = os.path.join(dst, os.path.basename(src))
--> 251     copyfile(src, dst, follow_symlinks=follow_symlinks)
    252     copystat(src, dst, follow_symlinks=follow_symlinks)
    253     return dst

C:\Users\mytru\Anaconda3\lib\shutil.py in copyfile(src, dst, follow_symlinks)
    112         os.symlink(os.readlink(src), dst)
    113     else:
--> 114         with open(src, 'rb') as fsrc:
    115             with open(dst, 'wb') as fdst:
    116                 copyfileobj(fsrc, fdst)

FileNotFoundError: [Errno 2] No such file or directory: 'C:\\bacon.txt'

In [13]: shutil.move('spam.txt', 'c:\\does_not_exist\\eggs\\ham')
---------------------------------------------------------------------------
FileNotFoundError                         Traceback (most recent call last)
C:\Users\mytru\Anaconda3\lib\shutil.py in move(src, dst, copy_function)
    537     try:
--> 538         os.rename(src, real_dst)
    539     except OSError:

FileNotFoundError: [WinError 2] The system cannot find the file specified: 'spam.txt' -> 'c:\\does_not_exist\\eggs\\ham'

During handling of the above exception, another exception occurred:

FileNotFoundError                         Traceback (most recent call last)
<ipython-input-13-b06240c5c67f> in <module>()
----> 1 shutil.move('spam.txt', 'c:\\does_not_exist\\eggs\\ham')

C:\Users\mytru\Anaconda3\lib\shutil.py in move(src, dst, copy_function)
    550             rmtree(src)
    551         else:
--> 552             copy_function(src, real_dst)
    553             os.unlink(src)
    554     return real_dst

C:\Users\mytru\Anaconda3\lib\shutil.py in copy2(src, dst, follow_symlinks)
    249     if os.path.isdir(dst):
    250         dst = os.path.join(dst, os.path.basename(src))
--> 251     copyfile(src, dst, follow_symlinks=follow_symlinks)
    252     copystat(src, dst, follow_symlinks=follow_symlinks)
    253     return dst

C:\Users\mytru\Anaconda3\lib\shutil.py in copyfile(src, dst, follow_symlinks)
    112         os.symlink(os.readlink(src), dst)
    113     else:
--> 114         with open(src, 'rb') as fsrc:
    115             with open(dst, 'wb') as fdst:
    116                 copyfileobj(fsrc, fdst)

FileNotFoundError: [Errno 2] No such file or directory: 'spam.txt'

In [14]: import os

In [15]: for filename is os.listdir():
  File "<ipython-input-15-c8a16f7e7355>", line 1
    for filename is os.listdir():
                  ^
SyntaxError: invalid syntax


In [16]: for filename is os.listdir():;if filename.endswith('.rxt'):; print(filename)
  File "<ipython-input-16-fb65ba87cc1c>", line 1
    for filename is os.listdir():;if filename.endswith('.rxt'):; print(filename)
                  ^
SyntaxError: invalid syntax


In [17]: import os
    ...: for filename in os.listdir():
    ...:     if filename.endswith('.rxt'):
    ...:         #os.unlink(filename)
    ...:         print(filename)
    ...:

In [18]: import send2trash
---------------------------------------------------------------------------
ImportError                               Traceback (most recent call last)
<ipython-input-18-2bc9849f8cc7> in <module>()
----> 1 import send2trash

ImportError: No module named 'send2trash'

In [19]: pip install send2trash
  File "<ipython-input-19-cdbfd979c06c>", line 1
    pip install send2trash
              ^
SyntaxError: invalid syntax


In [20]: import send2trash

In [21]: baconFile = open('bacon.txt', 'a')
---------------------------------------------------------------------------
OSError                                   Traceback (most recent call last)
<ipython-input-21-cf6b8a97bf37> in <module>()
----> 1 baconFile = open('bacon.txt', 'a')

OSError: [Errno 22] Invalid argument: 'bacon.txt'

In [22]: baconFile.write('Bacon is not a vegetable.')
    ...:
---------------------------------------------------------------------------
NameError                                 Traceback (most recent call last)
<ipython-input-22-e8f9bb9e3720> in <module>()
----> 1 baconFile.write('Bacon is not a vegetable.')

NameError: name 'baconFile' is not defined

In [23]: baconFile.close()
---------------------------------------------------------------------------
NameError                                 Traceback (most recent call last)
<ipython-input-23-7fb178851c83> in <module>()
----> 1 baconFile.close()

NameError: name 'baconFile' is not defined

In [24]: send2trash.send2trash('bacon.txt')
---------------------------------------------------------------------------
OSError                                   Traceback (most recent call last)
<ipython-input-24-feb92c6d072f> in <module>()
----> 1 send2trash.send2trash('bacon.txt')

C:\Users\mytru\Anaconda3\lib\site-packages\send2trash\plat_win.py in send2trash(path)
     56     if result:
     57         msg = "Couldn't perform operation. Error code: %d" % result
---> 58         raise OSError(msg)
     59

OSError: Couldn't perform operation. Error code: 2

In [25]: import os

In [26]: for folderName, subfolders, filenames in os.walk('C:\\delicious'):
    ...:     print('The current folder is ' + folderName)
    ...:     for subfolder in subfolders:
    ...:         print('SUBFOLDER OF ' + folderName + ':' + subfolder)
    ...:     for filename in filenames:
    ...:         print('FILE INSIDE ' + folderName + ':' + filename)
    ...:     print('')
    ...:
The current folder is C:\delicious
SUBFOLDER OF C:\delicious:walnut

The current folder is C:\delicious\walnut
SUBFOLDER OF C:\delicious\walnut:waffles

The current folder is C:\delicious\walnut\waffles


In [27]: import zipfile, os

In [28]: os.chdir('C:\\')    # move to the folder with example.zip

In [29]: exampleZip = zipfile.ZipFile('example.zip')
---------------------------------------------------------------------------
FileNotFoundError                         Traceback (most recent call last)
<ipython-input-29-23d55e91d38f> in <module>()
----> 1 exampleZip = zipfile.ZipFile('example.zip')

C:\Users\mytru\Anaconda3\lib\zipfile.py in __init__(self, file, mode, compression, allowZip64)
   1007             while True:
   1008                 try:
-> 1009                     self.fp = io.open(file, filemode)
   1010                 except OSError:
   1011                     if filemode in modeDict:

FileNotFoundError: [Errno 2] No such file or directory: 'example.zip'

In [30]: exampleZip.namelist()
---------------------------------------------------------------------------
NameError                                 Traceback (most recent call last)
<ipython-input-30-9de53c89496c> in <module>()
----> 1 exampleZip.namelist()

NameError: name 'exampleZip' is not defined

In [31]: spamInfo = exampleZip.getinfo('spam.txt')
---------------------------------------------------------------------------
NameError                                 Traceback (most recent call last)
<ipython-input-31-16b533dc5667> in <module>()
----> 1 spamInfo = exampleZip.getinfo('spam.txt')

NameError: name 'exampleZip' is not defined

In [32]: spamInfo.file_size
---------------------------------------------------------------------------
NameError                                 Traceback (most recent call last)
<ipython-input-32-ece4e6e5c73d> in <module>()
----> 1 spamInfo.file_size

NameError: name 'spamInfo' is not defined

In [33]: spamInfo.compress_size
---------------------------------------------------------------------------
NameError                                 Traceback (most recent call last)
<ipython-input-33-95039468bc15> in <module>()
----> 1 spamInfo.compress_size

NameError: name 'spamInfo' is not defined

In [34]: 'Compressed file is %sx smaller!' % (round(spamInfo.file_size / spamInfo
    ...:    .compress_size, 2))
---------------------------------------------------------------------------
NameError                                 Traceback (most recent call last)
<ipython-input-34-b8180b23a087> in <module>()
----> 1 'Compressed file is %sx smaller!' % (round(spamInfo.file_size / spamInfo
      2    .compress_size, 2))

NameError: name 'spamInfo' is not defined

In [35]: exampleZip.close()
---------------------------------------------------------------------------
NameError                                 Traceback (most recent call last)
<ipython-input-35-3b3fc7740b8d> in <module>()
----> 1 exampleZip.close()

NameError: name 'exampleZip' is not defined

In [36]: import zipfile, os

In [37]: os.chdir('C:\\')    # move to the folder with example.zip

In [38]: exampleZip = zipfile.ZipFile('example.zip')
---------------------------------------------------------------------------
FileNotFoundError                         Traceback (most recent call last)
<ipython-input-38-23d55e91d38f> in <module>()
----> 1 exampleZip = zipfile.ZipFile('example.zip')

C:\Users\mytru\Anaconda3\lib\zipfile.py in __init__(self, file, mode, compression, allowZip64)
   1007             while True:
   1008                 try:
-> 1009                     self.fp = io.open(file, filemode)
   1010                 except OSError:
   1011                     if filemode in modeDict:

FileNotFoundError: [Errno 2] No such file or directory: 'example.zip'

In [39]: exampleZip.extractall()
---------------------------------------------------------------------------
NameError                                 Traceback (most recent call last)
<ipython-input-39-840b8d0612eb> in <module>()
----> 1 exampleZip.extractall()

NameError: name 'exampleZip' is not defined

In [40]: exampleZip.close()
---------------------------------------------------------------------------
NameError                                 Traceback (most recent call last)
<ipython-input-40-3b3fc7740b8d> in <module>()
----> 1 exampleZip.close()

NameError: name 'exampleZip' is not defined

In [41]: exampleZip.extract('spam.txt')
---------------------------------------------------------------------------
NameError                                 Traceback (most recent call last)
<ipython-input-41-ba2eb8e4257a> in <module>()
----> 1 exampleZip.extract('spam.txt')

NameError: name 'exampleZip' is not defined

In [42]: exampleZip.extract('spam.txt', 'C:\\some\\new\\folders')
---------------------------------------------------------------------------
NameError                                 Traceback (most recent call last)
<ipython-input-42-f8cbf4449ef3> in <module>()
----> 1 exampleZip.extract('spam.txt', 'C:\\some\\new\\folders')

NameError: name 'exampleZip' is not defined

In [43]: exampleZip.close()
---------------------------------------------------------------------------
NameError                                 Traceback (most recent call last)
<ipython-input-43-3b3fc7740b8d> in <module>()
----> 1 exampleZip.close()

NameError: name 'exampleZip' is not defined

In [44]: import zipfile

In [45]: newZip = zipfile.ZipFile('new.zip', 'w')
---------------------------------------------------------------------------
OSError                                   Traceback (most recent call last)
<ipython-input-45-d3cbe5631730> in <module>()
----> 1 newZip = zipfile.ZipFile('new.zip', 'w')

C:\Users\mytru\Anaconda3\lib\zipfile.py in __init__(self, file, mode, compression, allowZip64)
   1007             while True:
   1008                 try:
-> 1009                     self.fp = io.open(file, filemode)
   1010                 except OSError:
   1011                     if filemode in modeDict:

OSError: [Errno 22] Invalid argument: 'new.zip'

In [46]: newZip.write('spam.txt', compress_type=zipfile.ZIP_DEFLATED)
---------------------------------------------------------------------------
NameError                                 Traceback (most recent call last)
<ipython-input-46-20cfb4919271> in <module>()
----> 1 newZip.write('spam.txt', compress_type=zipfile.ZIP_DEFLATED)

NameError: name 'newZip' is not defined

In [47]: newZip.close()
---------------------------------------------------------------------------
NameError                                 Traceback (most recent call last)
<ipython-input-47-9711aa8e3543> in <module>()
----> 1 newZip.close()

NameError: name 'newZip' is not defined
